{
  "name": "gateway",
  "$schema": "../../node_modules/nx/schemas/project-schema.json",
  "sourceRoot": "apps/gateway/src",
  "projectType": "application",
  "targets": {
    "build": {
      "executor": "@nx/webpack:webpack",
      "outputs": [
        "{options.outputPath}"
      ],
      "defaultConfiguration": "production",
      "options": {
        "target": "node",
        "compiler": "tsc",
        "outputPath": "dist/apps/gateway",
        "main": "apps/gateway/src/main.ts",
        "tsConfig": "apps/gateway/tsconfig.app.json",
        "assets": [
          "apps/gateway/src/config",
          {
            "input": "libs/grpc/proto",
            "glob": "*.proto",
            "output": "assets/proto"
          }
        ],
        "isolatedConfig": true,
        "webpackConfig": "apps/gateway/webpack.config.js"
      },
      "configurations": {
        "development": {},
        "production": {}
      }
    },
    "serve": {
      "executor": "@nx/js:node",
      "defaultConfiguration": "development",
      "options": {
        "buildTarget": "gateway:build"
      },
      "configurations": {
        "development": {
          "buildTarget": "gateway:build:development"
        },
        "production": {
          "buildTarget": "gateway:build:production"
        }
      }
    },
    "lint": {
      "executor": "@nx/linter:eslint",
      "outputs": [
        "{options.outputFile}"
      ],
      "options": {
        "lintFilePatterns": [
          "apps/gateway/**/*.ts"
        ]
      }
    },
    "test": {
      "executor": "@nx/jest:jest",
      "outputs": [
        "{workspaceRoot}/coverage/{projectRoot}"
      ],
      "options": {
        "jestConfig": "apps/gateway/jest.config.ts",
        "passWithNoTests": true
      },
      "configurations": {
        "ci": {
          "ci": true,
          "codeCoverage": true
        }
      }
    }
  },
  "tags": []
}